<?xml version="1.0" encoding="UTF-8" standalone="no"?>
<!DOCTYPE svg PUBLIC "-//W3C//DTD SVG 1.1//EN"
 "http://www.w3.org/Graphics/SVG/1.1/DTD/svg11.dtd">
<!-- Generated by graphviz version 2.38.0 (20140413.2041)
 -->
<!-- Title: Scon Pages: 1 -->
<svg width="182pt" height="260pt"
 viewBox="0.00 0.00 182.49 260.00" xmlns="http://www.w3.org/2000/svg" xmlns:xlink="http://www.w3.org/1999/xlink">
<g id="graph0" class="graph" transform="scale(1 1) rotate(0) translate(4 256)">
<title>Scon</title>
<polygon fill="white" stroke="none" points="-4,4 -4,-256 178.491,-256 178.491,4 -4,4"/>
<!-- [1, 0, 0, 0] -->
<g id="node1" class="node"><title>[1, 0, 0, 0]</title>
<ellipse fill="none" stroke="black" cx="86.7457" cy="-234" rx="48.9926" ry="18"/>
<text text-anchor="middle" x="86.7457" y="-230.3" font-family="Times,serif" font-size="14.00">[1, 0, 0, 0]</text>
</g>
<!-- [0, 1, 0, 0] -->
<g id="node2" class="node"><title>[0, 1, 0, 0]</title>
<ellipse fill="none" stroke="black" cx="86.7457" cy="-162" rx="48.9926" ry="18"/>
<text text-anchor="middle" x="86.7457" y="-158.3" font-family="Times,serif" font-size="14.00">[0, 1, 0, 0]</text>
</g>
<!-- [1, 0, 0, 0]&#45;&gt;[0, 1, 0, 0] -->
<g id="edge1" class="edge"><title>[1, 0, 0, 0]&#45;&gt;[0, 1, 0, 0]</title>
<path fill="none" stroke="black" d="M80.8674,-216.055C80.0494,-208.346 79.8071,-199.027 80.1405,-190.364"/>
<polygon fill="black" stroke="black" points="83.6399,-190.491 80.8328,-180.275 76.6564,-190.012 83.6399,-190.491"/>
</g>
<!-- [0, 1, 0, 0]&#45;&gt;[1, 0, 0, 0] -->
<g id="edge2" class="edge"><title>[0, 1, 0, 0]&#45;&gt;[1, 0, 0, 0]</title>
<path fill="none" stroke="black" d="M92.6585,-180.275C93.4602,-188.03 93.6861,-197.362 93.3362,-206.005"/>
<polygon fill="black" stroke="black" points="89.8398,-205.832 92.6239,-216.055 96.8223,-206.327 89.8398,-205.832"/>
</g>
<!-- [0, 0, 1, 0] -->
<g id="node3" class="node"><title>[0, 0, 1, 0]</title>
<ellipse fill="none" stroke="black" cx="48.7457" cy="-90" rx="48.9926" ry="18"/>
<text text-anchor="middle" x="48.7457" y="-86.3" font-family="Times,serif" font-size="14.00">[0, 0, 1, 0]</text>
</g>
<!-- [0, 1, 0, 0]&#45;&gt;[0, 0, 1, 0] -->
<g id="edge3" class="edge"><title>[0, 1, 0, 0]&#45;&gt;[0, 0, 1, 0]</title>
<path fill="none" stroke="black" d="M77.5469,-144.055C73.1127,-135.887 67.6977,-125.912 62.7646,-116.824"/>
<polygon fill="black" stroke="black" points="65.7067,-114.908 57.8597,-107.789 59.5547,-118.247 65.7067,-114.908"/>
</g>
<!-- [0, 0, 0, 1] -->
<g id="node4" class="node"><title>[0, 0, 0, 1]</title>
<ellipse fill="none" stroke="black" cx="125.746" cy="-18" rx="48.9926" ry="18"/>
<text text-anchor="middle" x="125.746" y="-14.3" font-family="Times,serif" font-size="14.00">[0, 0, 0, 1]</text>
</g>
<!-- [0, 1, 0, 0]&#45;&gt;[0, 0, 0, 1] -->
<g id="edge4" class="edge"><title>[0, 1, 0, 0]&#45;&gt;[0, 0, 0, 1]</title>
<path fill="none" stroke="black" d="M93.8937,-144.036C98.0427,-133.743 103.144,-120.267 106.746,-108 112.745,-87.5664 117.694,-63.9774 121.036,-46.2203"/>
<polygon fill="black" stroke="black" points="124.502,-46.7196 122.858,-36.2531 117.617,-45.4603 124.502,-46.7196"/>
</g>
<!-- [0, 0, 1, 0]&#45;&gt;[0, 0, 0, 1] -->
<g id="edge5" class="edge"><title>[0, 0, 1, 0]&#45;&gt;[0, 0, 0, 1]</title>
<path fill="none" stroke="black" d="M66.2182,-73.1159C76.4569,-63.808 89.5577,-51.8981 100.861,-41.6222"/>
<polygon fill="black" stroke="black" points="103.297,-44.1378 108.342,-34.8212 98.5885,-38.9582 103.297,-44.1378"/>
</g>
<!-- [0, 0, 0, 1]&#45;&gt;[1, 0, 0, 0] -->
<g id="edge6" class="edge"><title>[0, 0, 0, 1]&#45;&gt;[1, 0, 0, 0]</title>
<path fill="none" stroke="black" d="M133.184,-35.8287C145.402,-66.0836 166.317,-131.068 144.746,-180 139.232,-192.508 129.147,-203.344 118.915,-211.902"/>
<polygon fill="black" stroke="black" points="116.493,-209.353 110.762,-218.264 120.799,-214.871 116.493,-209.353"/>
</g>
</g>
</svg>
