（プロジェクト未設定）,,,,,,
PC情報:,QCPU(Qモード) Q00J,,,,,
ステップ番号,行間ステートメント,命令,I/O(デバイス),空欄,PIステートメント,ノート
0,,LD,X0,,,
1,,OUT,D1000.1,,,
2,,LD,X0,,,
3,,OUT,D1000.2,,,
4,,LD,D1000.1,,,
5,,AND,D1000.2,,,
6,,OUT,M0,,,
7,,LD,D1000.2,,,
8,,OR,D1000.3,,,
9,,OUT,M1,,,
10,,END,,,,
